…
### the relationships between the percentageOfPop is that they should add up the the total of all races which are around 100% example: Both Hispanic origins Mississippi make up 99.652405969% of the whole population which is essentially 100%, the Non-Hispanic population makes up 96.300355262% and Hispanic makes up 3.352050708% of the population.

#### Now to add the vaccination data to the demography data

``` r
  CovidState%>%
  group_by(location)%>%
  summarise(date=max(date)) ### based on this information, we can see that the most recent day that the information was updated was 2021-09-30, so I will be using this data 
```

    ## # A tibble: 64 × 2
    ##    location          date      
    ##    <chr>             <chr>     
    ##  1 Alabama           2021-09-30
    ##  2 Alaska            2021-09-30
    ##  3 American Samoa    2021-09-30
    ##  4 Arizona           2021-09-30
    ##  5 Arkansas          2021-09-30
    ##  6 Bureau of Prisons 2021-09-30
    ##  7 California        2021-09-30
    ##  8 Colorado          2021-09-30
    ##  9 Connecticut       2021-09-30
    ## 10 Delaware          2021-09-30
    ## # … with 54 more rows
…
## More generally a correlation between percentage of residents who are minorities racially

``` r
minorityData<- 
  raceSpecificData%>%
  mutate(minorities= 100- white)%>% # find the non-white percentage of citizens
  select(NAME, people_fully_vaccinated_per_hundred,minorities )
minorityData
```

    ## # A tibble: 51 × 3
    ##    NAME          people_fully_vaccinated_per_hundred minorities
    ##    <chr>                                       <dbl>      <dbl>
    ##  1 Puerto Rico                                  70.3      NA   
    ##  2 Vermont                                      69.5       6.10
    ##  3 Connecticut                                  68.7      20.5 
    ##  4 Maine                                        68.5       5.16
    ##  5 Rhode Island                                 68.3      16.2 
    ##  6 Massachusetts                                67.9      19.5 
    ##  7 New Jersey                                   64.3      28.3 
    ##  8 Maryland                                     64.1      41.4 
    ##  9 New Mexico                                   63.2      18.1 
    ## 10 New Hampshire                                61.5       6.66
    ## # … with 41 more rows
…
### data wrangled to pull only the vaccination data and the median income per state

``` r
medIncomeVersusVax<-
  DemoVaxTogether%>%
  select(NAME, people_fully_vaccinated_per_hundred, medincome)%>%
  group_by(NAME, people_fully_vaccinated_per_hundred, medincome)%>%
  unique()

medIncomeVersusVax
```

    ## # A tibble: 51 × 3
    ## # Groups:   NAME, people_fully_vaccinated_per_hundred, medincome [51]
    ##    NAME           people_fully_vaccinated_per_hundred medincome
    ##    <chr>                                        <dbl>     <dbl>
    ##  1 Mississippi                                   43.5     43567
    ##  2 Missouri                                      47.9     53560
    ##  3 Montana                                       48.5     52559
    ##  4 Nebraska                                      54.7     59116
    ##  5 Nevada                                        50.8     57598
    ##  6 New Hampshire                                 61.5     74057
    ##  7 New Jersey                                    64.3     79363
    ##  8 New Mexico                                    63.2     48059
    ##  9 North Carolina                                49.8     52413
    ## 10 North Dakota                                  44.2     63473
    ## # … with 41 more rows
…
